nfl statistics
…
## [1] 17172    10

names(basicstats)

##  [1] "Name"            "Birth.Place"     "Height..inches." "Birthday"       
##  [5] "Weight..lbs."    "Current.Status"  "Current.Team"    "X"              
##  [9] "Position"        "College"

##Need to delete X column

##   count
## 1   176

## # A tibble: 728 × 2
##    College      count
##    <chr>        <int>
##  1 Notre Dame     305
##  2 USC            289
##  3 Ohio State     266
##  4 No College     262
##  5 Michigan       229
##  6 Penn State     224
##  7 Nebraska       221
##  8 LSU            219
##  9 Miami (Fla.)   217
## 10 Alabama        207
## # … with 718 more rows
…
